# # add [eax + ebx * 2 + 9], ecx
# # add [eax + ebx * 2 + -9], [ecx + ecx * 4]
# # mov [eax + 9], esi
# # sub eax, [ebx + 10]
# # lea [esi + ecx * 4 + 12], [ebx + 10]
# #
# #xor eax, eax
# #xor ebx, ebx
# #xor ecx, ecx
# #xor edi, edi
# #xor eax, ebx
# #xor eax, ecx
# mov eax, 128
# mov ebx, esi
# mov ebx, ecx
# mov eax, esi
# mov eax, ecx
# mov ebx, eax
# #
# #mov [eax], ebx
# # xor esi, esi
# #mov [esi + 4], esi
# # add eax, ecx
# int 128
#
#
mov eax, 0x16
mov edx, 0xffffffff
add eax, edx
int 0x80

